Getting Started with dissertationData • dissertationData
…
Let’s continue interacting with the data to demonstrate how to answer
questions using this dataset in the R environment.

I will proceed by selecting the variables I care most about, which
are the grade and the suicide attempts items.

Considering we lost the data dictionaries due to recent federal
actions, you can access the ones I was able to recover here. However,
the package also includes dictionaries for each of the datasets.

Let’s use one of the dictionaries.

dict_2023 <- load_dictionary("2023")
dict_2023
#> # A tibble: 250 × 7
#>    position variable description             `column type` missing levels origin
#>       <int> <chr>    <chr>                   <chr>           <int> <name> <chr> 
#>  1        1 Q1       How old are you         fct                98 <chr>  2023  
#>  2        2 Q2       What is your sex        fct               158 <chr>  2023  
#>  3        3 Q3       In what grade are you   fct               193 <chr>  2023  
#>  4        4 Q4       Are you Hispanic/Latino fct               254 <chr>  2023  
#>  5        5 Q5       What is your race       chr              1389 <NULL> 2023  
#>  6        6 Q6       How tall are you        dbl              2289 <NULL> 2023  
#>  7        7 Q7       How much do you weigh   dbl              2289 <NULL> 2023  
#>  8        8 Q8       Seat belt use           fct              5032 <chr>  2023  
#>  9        9 Q9       Riding with a drinking… fct               505 <chr>  2023  
#> 10       10 Q10      Drinking and driving    fct              1127 <chr>  2023  
#> # ℹ 240 more rows
…
